﻿{
    "coord": {
        "lon": 14.553,
        "lat": 53.4289
    },
    "weather": [
        {
            "id": 804,
            "main": "Clouds",
            "description": "całkowite zachmurzenie",
            "icon": "04d"
        }
    ],
    "base": "stations",
    "main": {
        "temp": 21.86,
        "feels_like": 21.93,
        "temp_min": 19.97,
        "temp_max": 24.08,
        "pressure": 1010,
        "humidity": 70
    },
    "visibility": 10000,
    "wind": {
        "speed": 2.68,
        "deg": 240
    },
    "clouds": {
        "all": 99
    },
    "dt": 1627466404,
    "sys": {
        "type": 2,
        "id": 19799,
        "country": "PL",
        "sunrise": 1627441873,
        "sunset": 1627499106
    },
    "timezone": 7200,
    "id": 3083829,
    "name": "Szczecin",
    "cod": 200
}